Capítulo 2: Transformación de Datos en R
…
---

## Agrupar o segmentar datos

### Compras y Ventas promedio mensuales con tarifa 0% de las provincias de Pichincha y Guayas

```r
ventas %>%
    filter(PROVINCIA == c("PICHINCHA", "GUAYAS")) %>% 
    group_by(MES, PROVINCIA) %>% 
    summarise("Ventas Promedio" = mean(VN_0),
              "Compras Promedio" = mean(CN_0))
## `summarise()` has grouped output by 'MES'. You can override using the `.groups`
## argument.
## # A tibble: 24 × 4
## # Groups:   MES [12]
##    MES   PROVINCIA `Ventas Promedio` `Compras Promedio`
##    <fct> <chr>                 <dbl>              <dbl>
##  1 Ene   GUAYAS             4458530.           3648568.
##  2 Ene   PICHINCHA          5518150.           5147078.
##  3 Feb   GUAYAS             4632683.           4080136.
##  4 Feb   PICHINCHA         14175548.          10034898.
##  5 Mar   GUAYAS             2106350.           1435722.
##  6 Mar   PICHINCHA         10574088.           6780968.
##  7 Abr   GUAYAS             6672690.           5525116.
##  8 Abr   PICHINCHA         11986406.           9864439.
##  9 May   GUAYAS             3832655.           2479745.
## 10 May   PICHINCHA         10611122.           7676157.
## # ℹ 14 more rows
```
…
