Capítulo 3: Manipulación de Datos en R
…
#  Operador `pipe` %>%

<img src="img/pipe.jpg" width="700" style="display: block; margin: auto;" />

---

#  Operador `pipe` %>%

.pull-left[
**Sin pipe**

```r
select(profesores2, sexo, edad, alumnos, niveldocencia)
## # A tibble: 175 × 4
##    sexo       edad alumnos niveldocencia                        
##    <chr>     <dbl>   <dbl> <chr>                                
##  1 Masculino    36      42 Educación infantil, primaria o básica
##  2 Femenino     31      37 Educación superior                   
##  3 Masculino    35      30 Educación superior                   
##  4 Femenino     26      19 Educación secundaria y bachillerato  
##  5 Femenino     35      25 Educación superior                   
##  6 Masculino    38      43 Educación superior                   
##  7 Femenino     35      41 Educación superior                   
##  8 Masculino    45      24 Educación superior                   
##  9 Masculino    38      27 Educación superior                   
## 10 Femenino     37      18 Educación superior                   
## # … with 165 more rows
```
]

.pull-right[
**Con pipe**

```r
profesores2 %>% select(sexo, edad, alumnos, niveldocencia)
## # A tibble: 175 × 4
##    sexo       edad alumnos niveldocencia                        
##    <chr>     <dbl>   <dbl> <chr>                                
##  1 Masculino    36      42 Educación infantil, primaria o básica
##  2 Femenino     31      37 Educación superior                   
##  3 Masculino    35      30 Educación superior                   
##  4 Femenino     26      19 Educación secundaria y bachillerato  
##  5 Femenino     35      25 Educación superior                   
##  6 Masculino    38      43 Educación superior                   
##  7 Femenino     35      41 Educación superior                   
##  8 Masculino    45      24 Educación superior                   
##  9 Masculino    38      27 Educación superior                   
## 10 Femenino     37      18 Educación superior                   
## # … with 165 more rows
```
…
background-image: url("img/dplyr_filter.jpg")
background-size: contain

---

#  Filtrar observaciones

Para resolver el indicador planteado, vamos a delimitar el universo a las personas de 40 o más años por lo que usaremos **`filter()`**. 

```r
profesores2 %>% 
    select(sexo, edad, alumnos, niveldocencia) %>% 
    filter(edad >= 40)
## # A tibble: 66 × 4
##    sexo       edad alumnos niveldocencia                        
##    <chr>     <dbl>   <dbl> <chr>                                
##  1 Masculino    45      24 Educación superior                   
##  2 Masculino    47      33 Educación infantil, primaria o básica
##  3 Masculino    47      19 Educación superior                   
##  4 Femenino     44      28 Educación secundaria y bachillerato  
##  5 Femenino     44      33 Educación superior                   
##  6 Masculino    42      29 Educación superior                   
##  7 Masculino    44      21 Educación superior                   
##  8 Masculino    40      32 Educación superior                   
##  9 Femenino     50      26 Educación infantil, primaria o básica
## 10 Femenino     45      44 Educación infantil, primaria o básica
## # … with 56 more rows
```
…
---

#  Filtrar observaciones

Vamos a delimitar nuestros datos a la población femenina que no tiene estudiantes con NEE, mostrando solo las variables de edad, alumnos, nivel que imparte docencia y material utilizado.

```r
profesores2 %>% 
    filter(sexo=="Femenino" & alumnosNEE==0) %>% 
    select(edad, alumnos, niveldocencia, material)
## # A tibble: 47 × 4
##     edad alumnos niveldocencia                         material      
##    <dbl>   <dbl> <chr>                                 <chr>         
##  1    30      24 Educación secundaria y bachillerato   Diapositivas  
##  2    29      35 Educación infantil, primaria o básica Pizarra       
##  3    29      42 Educación infantil, primaria o básica Videos        
##  4    44      33 Educación superior                    Diapositivas  
##  5    34      26 Educación infantil, primaria o básica Pizarra       
##  6    50      26 Educación infantil, primaria o básica Videos        
##  7    31      34 Educación infantil, primaria o básica Diapositivas  
##  8    36      26 Educación infantil, primaria o básica Pizarra       
##  9    31      43 Educación infantil, primaria o básica Libro de texto
## 10    26      37 Educación infantil, primaria o básica Videos        
## # … with 37 more rows
```
…
