Sección 5: Manipulación de Datos con R
…
---

#  Operador `pipe` %>%

.pull-left[
**Sin pipe**

```r
select(profesores, cod, asignatura, asistente, instruccion)
## # A tibble: 175 × 4
##      cod asignatura                     asistente                      instruc…¹
##    <dbl> <chr>                          <chr>                          <chr>    
##  1     1 Totalmente de acuerdo          Totalmente de acuerdo          Totalmen…
##  2     2 De acuerdo                     Totalmente de acuerdo          Ni de ac…
##  3     3 De acuerdo                     Ni de acuerdo ni en desacuerdo En desac…
##  4     4 Ni de acuerdo ni en desacuerdo Totalmente de acuerdo          Ni de ac…
##  5     5 De acuerdo                     Ni de acuerdo ni en desacuerdo En desac…
##  6     6 Totalmente de acuerdo          En desacuerdo                  De acuer…
##  7     7 Totalmente de acuerdo          Totalmente de acuerdo          Totalmen…
##  8     8 De acuerdo                     Ni de acuerdo ni en desacuerdo De acuer…
##  9     9 De acuerdo                     De acuerdo                     En desac…
## 10    10 Ni de acuerdo ni en desacuerdo Ni de acuerdo ni en desacuerdo Ni de ac…
## # … with 165 more rows, and abbreviated variable name ¹​instruccion
```
]

.pull-right[
**Con pipe**

```r
profesores %>% select(cod, asignatura, asistente, instruccion)
## # A tibble: 175 × 4
##      cod asignatura                     asistente                      instruc…¹
##    <dbl> <chr>                          <chr>                          <chr>    
##  1     1 Totalmente de acuerdo          Totalmente de acuerdo          Totalmen…
##  2     2 De acuerdo                     Totalmente de acuerdo          Ni de ac…
##  3     3 De acuerdo                     Ni de acuerdo ni en desacuerdo En desac…
##  4     4 Ni de acuerdo ni en desacuerdo Totalmente de acuerdo          Ni de ac…
##  5     5 De acuerdo                     Ni de acuerdo ni en desacuerdo En desac…
##  6     6 Totalmente de acuerdo          En desacuerdo                  De acuer…
##  7     7 Totalmente de acuerdo          Totalmente de acuerdo          Totalmen…
##  8     8 De acuerdo                     Ni de acuerdo ni en desacuerdo De acuer…
##  9     9 De acuerdo                     De acuerdo                     En desac…
## 10    10 Ni de acuerdo ni en desacuerdo Ni de acuerdo ni en desacuerdo Ni de ac…
## # … with 165 more rows, and abbreviated variable name ¹​instruccion
```
…
background-image: url("img/dplyr_filter.jpg")
background-size: contain

---

#  Filtrar observaciones

Vamos a delimitar nuestros datos a la población femenina que no tiene estudiantes con NEE, mostrando solo las variables de edad, alumnos, nivel que imparte docencia y material utilizado.

```r
profesores %>% 
    filter(sexo=="Femenino" & alumnos_NEE==0) %>% 
    select(edad, alumnos, nivel, material)
## # A tibble: 47 × 4
##     edad alumnos nivel      material      
##    <dbl>   <dbl> <chr>      <chr>         
##  1    30      24 INTERMEDIO Diapositivas  
##  2    29      35 BASICO     Pizarra       
##  3    29      42 BASICO     Videos        
##  4    44      33 SUPERIOR   Diapositivas  
##  5    34      26 BASICO     Pizarra       
##  6    50      26 BASICO     Videos        
##  7    31      34 BASICO     Diapositivas  
##  8    36      26 BASICO     Pizarra       
##  9    31      43 BASICO     Libro de texto
## 10    26      37 BASICO     Videos        
## # … with 37 more rows
```
…
